%YAML 1.1
%TAG !u! tag:unity3d.com,2011:
--- !u!114 &11400000
MonoBehaviour:
  m_ObjectHideFlags: 0
  m_CorrespondingSourceObject: {fileID: 0}
  m_PrefabInstance: {fileID: 0}
  m_PrefabAsset: {fileID: 0}
  m_GameObject: {fileID: 0}
  m_Enabled: 1
  m_EditorHideFlags: 0
  m_Script: {fileID: 11500000, guid: bbb281ee3bf0b054c82ac2347e9e782c, type: 3}
  m_Name: Scenes
  m_EditorClassIdentifier: 
  m_GroupName: Scenes
  m_Data:
    m_SerializedData: []
  m_GUID: 26317a307b1e0450ebd56afe4a978299
  m_SerializeEntries:
  - m_GUID: 2cda990e2423bbf4892e6590ba056729
    m_Address: HotScene
    m_ReadOnly: 0
    m_SerializedLabels: []
    m_MainAsset: {fileID: 102900000, guid: 2cda990e2423bbf4892e6590ba056729, type: 3}
    m_TargetAsset: {fileID: 102900000, guid: 2cda990e2423bbf4892e6590ba056729, type: 3}
  m_ReadOnly: 0
  m_Settings: {fileID: 11400000, guid: 93f23733f05c24a1093634dd41734114, type: 2}
  m_SchemaSet:
    m_Schemas:
    - {fileID: 11400000, guid: 944c696116c32448ba3dabcd166e83a1, type: 2}
    - {fileID: 11400000, guid: ff9e119d9f4fa4c4091ddd3799b05fcd, type: 2}
