%YAML 1.1
%TAG !u! tag:unity3d.com,2011:
--- !u!114 &11400000
MonoBehaviour:
  m_ObjectHideFlags: 0
  m_CorrespondingSourceObject: {fileID: 0}
  m_PrefabInstance: {fileID: 0}
  m_PrefabAsset: {fileID: 0}
  m_GameObject: {fileID: 0}
  m_Enabled: 1
  m_EditorHideFlags: 0
  m_Script: {fileID: 11500000, guid: e5d17a21594effb4e9591490b009e7aa, type: 3}
  m_Name: Packed Assets_BundledAssetGroupSchema
  m_EditorClassIdentifier: 
  m_Group: {fileID: 11400000, guid: c512f7e1db7524e2a91de8c2358e8f0d, type: 2}
  m_Compression: 1
  m_IncludeInBuild: 1
  m_BundledAssetProviderType:
    m_AssemblyName: Unity.ResourceManager, Version=0.0.0.0, Culture=neutral, PublicKeyToken=null
    m_ClassName: UnityEngine.ResourceManagement.ResourceProviders.BundledAssetProvider
  m_ForceUniqueProvider: 0
  m_UseAssetBundleCache: 1
  m_UseAssetBundleCrc: 1
  m_Timeout: 0
  m_ChunkedTransfer: 0
  m_RedirectLimit: -1
  m_RetryCount: 0
  m_BuildPath:
    m_Id: 5cae1d8c32e75496596453dea98b7f1d
  m_LoadPath:
    m_Id: a29f00796f3314c489c5b47943ebbf99
  m_BundleMode: 0
  m_AssetBundleProviderType:
    m_AssemblyName: Unity.ResourceManager, Version=0.0.0.0, Culture=neutral, PublicKeyToken=null
    m_ClassName: UnityEngine.ResourceManagement.ResourceProviders.AssetBundleProvider
  m_BundleNaming: 0
