%YAML 1.1
%TAG !u! tag:unity3d.com,2011:
--- !u!74 &7400000
AnimationClip:
  m_ObjectHideFlags: 0
  m_CorrespondingSourceObject: {fileID: 0}
  m_PrefabInstance: {fileID: 0}
  m_PrefabAsset: {fileID: 0}
  m_Name: green
  serializedVersion: 6
  m_Legacy: 0
  m_Compressed: 0
  m_UseHighQualityCurve: 1
  m_RotationCurves: []
  m_CompressedRotationCurves: []
  m_EulerCurves: []
  m_PositionCurves: []
  m_ScaleCurves: []
  m_FloatCurves: []
  m_PPtrCurves:
  - curve:
    - time: 0
      value: {fileID: 21300000, guid: d7a5346cc4a2a4bc9b68b8a1c7055d0c, type: 3}
    - time: 0.05
      value: {fileID: 21300000, guid: db93537ff0e784263bb97ea523468ddc, type: 3}
    - time: 0.1
      value: {fileID: 21300000, guid: f68e53ed3d46047a0b799f09aa15bdf7, type: 3}
    - time: 0.16666667
      value: {fileID: 21300000, guid: 6372d5d5f04d34ab3aa2b9e43afca787, type: 3}
    - time: 0.21666667
      value: {fileID: 21300000, guid: 79f9231b924f34bf7bc0db0de14a5dbe, type: 3}
    - time: 0.26666668
      value: {fileID: 21300000, guid: 5d406f15a087844ba9a6000f178f1319, type: 3}
    - time: 0.31666666
      value: {fileID: 21300000, guid: 0375fb1e54b7849f6b851096f1fabc81, type: 3}
    - time: 0.36666667
      value: {fileID: 21300000, guid: efd5c5e7e3345419eb41b95c92bdc8b2, type: 3}
    - time: 0.41666666
      value: {fileID: 21300000, guid: ab45ac7cc043f4734a035e0cd970d60b, type: 3}
    - time: 0.46666667
      value: {fileID: 21300000, guid: 35575d80f98c641aabfdc629b5a59cff, type: 3}
    - time: 0.51666665
      value: {fileID: 21300000, guid: af09fac31dbc249ccaf0b50b99e4037b, type: 3}
    - time: 0.5833333
      value: {fileID: 21300000, guid: 15a4575c82c9d461d8003306d05229c6, type: 3}
    attribute: m_Sprite
    path: 
    classID: 114
    script: {fileID: 11500000, guid: fe87c0e1cc204ed48ad3b37840f39efc, type: 3}
  m_SampleRate: 60
  m_WrapMode: 0
  m_Bounds:
    m_Center: {x: 0, y: 0, z: 0}
    m_Extent: {x: 0, y: 0, z: 0}
  m_ClipBindingConstant:
    genericBindings:
    - serializedVersion: 2
      path: 0
      attribute: 2015549526
      script: {fileID: 11500000, guid: fe87c0e1cc204ed48ad3b37840f39efc, type: 3}
      typeID: 114
      customType: 0
      isPPtrCurve: 1
    pptrCurveMapping:
    - {fileID: 21300000, guid: d7a5346cc4a2a4bc9b68b8a1c7055d0c, type: 3}
    - {fileID: 21300000, guid: db93537ff0e784263bb97ea523468ddc, type: 3}
    - {fileID: 21300000, guid: f68e53ed3d46047a0b799f09aa15bdf7, type: 3}
    - {fileID: 21300000, guid: 6372d5d5f04d34ab3aa2b9e43afca787, type: 3}
    - {fileID: 21300000, guid: 79f9231b924f34bf7bc0db0de14a5dbe, type: 3}
    - {fileID: 21300000, guid: 5d406f15a087844ba9a6000f178f1319, type: 3}
    - {fileID: 21300000, guid: 0375fb1e54b7849f6b851096f1fabc81, type: 3}
    - {fileID: 21300000, guid: efd5c5e7e3345419eb41b95c92bdc8b2, type: 3}
    - {fileID: 21300000, guid: ab45ac7cc043f4734a035e0cd970d60b, type: 3}
    - {fileID: 21300000, guid: 35575d80f98c641aabfdc629b5a59cff, type: 3}
    - {fileID: 21300000, guid: af09fac31dbc249ccaf0b50b99e4037b, type: 3}
    - {fileID: 21300000, guid: 15a4575c82c9d461d8003306d05229c6, type: 3}
  m_AnimationClipSettings:
    serializedVersion: 2
    m_AdditiveReferencePoseClip: {fileID: 0}
    m_AdditiveReferencePoseTime: 0
    m_StartTime: 0
    m_StopTime: 0.59999996
    m_OrientationOffsetY: 0
    m_Level: 0
    m_CycleOffset: 0
    m_HasAdditiveReferencePose: 0
    m_LoopTime: 1
    m_LoopBlend: 0
    m_LoopBlendOrientation: 0
    m_LoopBlendPositionY: 0
    m_LoopBlendPositionXZ: 0
    m_KeepOriginalOrientation: 0
    m_KeepOriginalPositionY: 1
    m_KeepOriginalPositionXZ: 0
    m_HeightFromFeet: 0
    m_Mirror: 0
  m_EditorCurves: []
  m_EulerEditorCurves: []
  m_HasGenericRootTransform: 0
  m_HasMotionFloatCurves: 0
  m_Events: []
